{
  "version":11,
  "update_time":20210824,
  "auto_refresh_rate_policy_mode": "whitelist",
  "fast_slow_slide_whitelist": [
  ],
  "auto_refresh_rate_blacklist": [
  ],
  "auto_refresh_rate_whitelist": [
    "android",
    "com.transsion.phoenix",
    "com.gallery20",
    "com.android.contacts",
    "com.transsion.hilauncher",
    "com.transsion.XOSLauncher",
    "com.android.settings"
  ],
  "refresh_rate_90hz_whitelist": [
    "com.tencent.mm",
    "com.facebook.katana",
    "com.twitter.android",
    "com.tencent.wework",
    "com.google.android.apps.meetings",
    "com.eg.android.AlipayGphone",
    "ng.jiji.app",
    "com.android.vending",
    "com.tencent.ig",
    "com.tencent.iglite",
    "com.pubg.imobile",
    "com.android.chrome"
  ],
  "high_refresh_rate_blacklist": [
    "com.transsion.screenrecord",
    "com.opera.mini.native",
    "com.tencent.tmgp.speedmobile",
    "com.dts.freefireth",
    "com.kiloo.subwaysurf",
    "com.king.candycrushsaga",
    "com.imangi.templerun",
    "com.imangi.templerun2",
    "com.tonielrosoft.classicludofree",
    "com.firsttouchgames.story",
    "com.ludo.king",
    "com.outfit7.mytalkingangelafree",
    "com.ss.android.ugc.trill",
    "com.sports.live.football.tv",
    "video.like",
    "com.mxtech.videoplayer.ad",
    "iflix.play",
    "com.starmakerinteractive.starmaker",
    "com.gbwhatsapp",
    "com.lbe.parallel.intl.arm64",
    "ru.yandex.searchplugin",
    "com.nemo.vidmate",
    "com.google.android.apps.nbu.files",
    "cn.xender",
    "com.grabtaxi.driver2",
    "ee.mtakso.driver",
    "com.waze",
    "com.vanced.android.youtube",
    "video.player.videoplayer",
    "org.videolan.vlc",
    "video.like.lite",
    "com.tencent.mobileqq",
    "com.qiyi.video",
    "com.youku.phone",
    "com.tencent.qqlive",
    "com.sohu.sohuvideo",
    "com.hunantv.imgo.activity",
    "com.ss.android.ugc.aweme",
    "com.smile.gifmaker",
    "com.duowan.kiwi",
    "air.tv.douyu.android",
    "tv.danmaku.bili",
    "com.opera.browser",
    "com.goodix.fingerprint.producttest",
    "com.dynamicgames.worldbusdrivingsimulator",
    "com.instagram.android",
    "org.telegram.messenger",
    "sg.bigo.live",
    "com.boundless.jawaker",
    "com.gojek.app",
    "com.blizzard.wtcg.hearthstone",
    "com.google.android.apps.youtube",
    "com.google.android.apps.maps",
    "com.autonavi.minimap",
    "com.baidu.BaiduMap",
    "com.cis.jiangnan.taptap",
    "com.google.android.gm",
    "com.microsoft.office.outlook",
    "ru.mail.mailapp",
    "com.aol.mobile.aolapp",
    "de.eue.mobile.android.mail",
    "com.att.mobile.android.vvm",
    "bg.abv.andro.emailapp"
  ],
  "g95_high_refresh_rate_blacklist": [
    "com.tencent.mobileqq",
    "com.youku.phone",
    "com.gameloft.android.ANMP.GloftA8HM",
    "com.gameloft.android.ANMP.GloftA8CN"
  ],
  "g80_high_refresh_rate_blacklist": [
    "com.skype.raider",
    "com.tencent.wework"
  ],
  "g85_high_refresh_rate_blacklist": [
    "com.tencent.mobileqq",
    "com.tencent.tmgp.sgame",
    "com.youku.phone",
    "com.gameloft.android.ANMP.GloftA8HM",
    "com.gameloft.android.ANMP.GloftA8CN"
  ],
  "ac8_high_refresh_rate_blacklist": [
    "com.google.android.youtube",
    "com.ss.android.ugc.trill",
    "com.google.android.apps.maps",
    "com.autonavi.minimap",
    "com.baidu.BaiduMap"
  ],
  "x697_high_refresh_rate_blacklist": [
    "com.play.rosea",
    "com.garena.game.kgth",
    "com.moonfrog.ludo.club",
    "com.ludo.master.hippo",
    "com.t2ksports.nba2k20and",
    "com.emagssob.tongits",
    "com.tonielrosoft.classicludofree",
    "com.hippogames.ludosaga",
    "com.jssygp.bulletangel",
    "com.activision.callofduty.shooter",
    "com.ludo.king",
    "com.dts.freefireth",
    "com.mojang.minecraftpe",
    "org.ppsspp.ppsspp",
    "com.firsttouchgames.dlsa",
    "com.wordgame.puzzle.block.crush",
    "com.fugo.wow",
    "com.nextstep.fruitburstline",
    "com.dts.freefiremax",
    "com.mobirix.swipebrick2",
    "com.wordpz.word.blocken",
    "com.innersloth.spacemafia",
    "com.battlecreek.nolimit2",
    "com.roblox.client",
    "com.tonielro.naijawhotfree",
    "com.ea.game.pvzfree_row",
    "com.dummy.poker",
    "jp.konami.pesam",
    "com.firsttouchgames.dls7",
    "com.maxgames.stickwarlegacy",
    "com.tongitsgo.play",
    "com.yalla.yallagames",
    "com.craftsman.go",
    "com.puzzleblock.mutao.aha",
    "com.chillingo.robberybob2.android.gplay",
    "com.PlayMax.playergames",
    "io.yarsa.games.ludo",
    "com.olzhas.carparking.multyplayer",
    "com.king.farmheroessaga",
    "com.miniclip.eightballpool",
    "com.comfun.mobile.ludo.gpas",
    "link.merge.puzzle.onnect.number",
    "com.tencent.mobileqq",
    "com.youku.phone",
    "com.gameloft.android.ANMP.GloftA8HM",
    "com.gameloft.android.ANMP.GloftA8CN",
    "com.miHoYo.GenshinImpact"
  ],
  "pubg_package_list": [
    "com.tencent.ig",
    "com.pubg.krmobile",
    "com.vng.pubgmobile",
    "com.rekoo.pubgm",
    "com.tencent.igce",
    "com.tencent.tmgp.pubgmhd"
  ]
}
